# 3ds Max Wavefront OBJ Exporter v0.97b - (c)2007 guruware
# File Created: 27.05.2019 16:16:45

newmtl Material0Ef
	Ns 9.999999
	Ni 1.500000
	d 1.000000
	Tr 0.000000
	Tf 1.000000 1.000000 1.000000 
	illum 2
	Ka 0.588235 0.588235 0.588235
	Kd 0.588235 0.588235 0.588235
	Ks 0.000000 0.000000 0.000000
	Ke 0.000000 0.000000 0.000000
	map_Ka ..\????max\maps\6R5FB017.JPG
	map_Kd ..\????max\maps\6R5FB017.JPG

newmtl Material17f
	Ns 9.999999
	Ni 1.500000
	d 1.000000
	Tr 0.000000
	Tf 1.000000 1.000000 1.000000 
	illum 2
	Ka 0.588235 0.588235 0.588235
	Kd 0.588235 0.588235 0.588235
	Ks 0.000000 0.000000 0.000000
	Ke 0.000000 0.000000 0.000000
	map_Ka ..\????max\maps\6R5FB023.JPG
	map_Kd ..\????max\maps\6R5FB023.JPG

newmtl Material1Cf
	Ns 9.999999
	Ni 1.500000
	d 1.000000
	Tr 0.000000
	Tf 1.000000 1.000000 1.000000 
	illum 2
	Ka 0.588235 0.588235 0.588235
	Kd 0.588235 0.588235 0.588235
	Ks 0.000000 0.000000 0.000000
	Ke 0.000000 0.000000 0.000000
	map_Ka ..\????max\maps\6R5FB028.JPG
	map_Kd ..\????max\maps\6R5FB028.JPG

newmtl Material19f
	Ns 9.999999
	Ni 1.500000
	d 1.000000
	Tr 0.000000
	Tf 1.000000 1.000000 1.000000 
	illum 2
	Ka 0.588235 0.588235 0.588235
	Kd 0.588235 0.588235 0.588235
	Ks 0.000000 0.000000 0.000000
	Ke 0.000000 0.000000 0.000000
	map_Ka ..\????max\maps\6R5FB025.JPG
	map_Kd ..\????max\maps\6R5FB025.JPG

newmtl Material15f
	Ns 9.999999
	Ni 1.500000
	d 1.000000
	Tr 0.000000
	Tf 1.000000 1.000000 1.000000 
	illum 2
	Ka 0.588235 0.588235 0.588235
	Kd 0.588235 0.588235 0.588235
	Ks 0.000000 0.000000 0.000000
	Ke 0.000000 0.000000 0.000000
	map_Ka ..\????max\maps\6R5FB021.JPG
	map_Kd ..\????max\maps\6R5FB021.JPG

newmtl Material18f
	Ns 9.999999
	Ni 1.500000
	d 1.000000
	Tr 0.000000
	Tf 1.000000 1.000000 1.000000 
	illum 2
	Ka 0.588235 0.588235 0.588235
	Kd 0.588235 0.588235 0.588235
	Ks 0.000000 0.000000 0.000000
	Ke 0.000000 0.000000 0.000000
	map_Ka ..\????max\maps\6R5FB024.JPG
	map_Kd ..\????max\maps\6R5FB024.JPG

newmtl Material16f
	Ns 9.999999
	Ni 1.500000
	d 1.000000
	Tr 0.000000
	Tf 1.000000 1.000000 1.000000 
	illum 2
	Ka 0.588235 0.588235 0.588235
	Kd 0.588235 0.588235 0.588235
	Ks 0.000000 0.000000 0.000000
	Ke 0.000000 0.000000 0.000000
	map_Ka ..\????max\maps\6R5FB022.JPG
	map_Kd ..\????max\maps\6R5FB022.JPG

newmtl Material01f
	Ns 9.999999
	Ni 1.500000
	d 1.000000
	Tr 0.000000
	Tf 1.000000 1.000000 1.000000 
	illum 2
	Ka 0.588235 0.588235 0.588235
	Kd 0.588235 0.588235 0.588235
	Ks 0.000000 0.000000 0.000000
	Ke 0.000000 0.000000 0.000000
	map_Ka ..\????max\maps\6R5FB02B.JPG
	map_Kd ..\????max\maps\6R5FB02B.JPG

newmtl Material00f
	Ns 9.999999
	Ni 1.500000
	d 1.000000
	Tr 0.000000
	Tf 1.000000 1.000000 1.000000 
	illum 2
	Ka 0.588235 0.588235 0.588235
	Kd 0.588235 0.588235 0.588235
	Ks 0.000000 0.000000 0.000000
	Ke 0.000000 0.000000 0.000000
	map_Ka ..\????max\maps\6R5FB02A.JPG
	map_Kd ..\????max\maps\6R5FB02A.JPG

newmtl Material13f
	Ns 9.999999
	Ni 1.500000
	d 1.000000
	Tr 0.000000
	Tf 1.000000 1.000000 1.000000 
	illum 2
	Ka 0.588235 0.588235 0.588235
	Kd 0.588235 0.588235 0.588235
	Ks 0.000000 0.000000 0.000000
	Ke 0.000000 0.000000 0.000000
	map_Ka ..\????max\maps\6R5FB01Z.JPG
	map_Kd ..\????max\maps\6R5FB01Z.JPG

newmtl Material07f
	Ns 9.999999
	Ni 1.500000
	d 1.000000
	Tr 0.000000
	Tf 1.000000 1.000000 1.000000 
	illum 2
	Ka 0.588235 0.588235 0.588235
	Kd 0.588235 0.588235 0.588235
	Ks 0.000000 0.000000 0.000000
	Ke 0.000000 0.000000 0.000000
	map_Ka ..\????max\maps\6R5FB02H.JPG
	map_Kd ..\????max\maps\6R5FB02H.JPG

newmtl Material06f
	Ns 9.999999
	Ni 1.500000
	d 1.000000
	Tr 0.000000
	Tf 1.000000 1.000000 1.000000 
	illum 2
	Ka 0.588235 0.588235 0.588235
	Kd 0.588235 0.588235 0.588235
	Ks 0.000000 0.000000 0.000000
	Ke 0.000000 0.000000 0.000000
	map_Ka ..\????max\maps\6R5FB02G.JPG
	map_Kd ..\????max\maps\6R5FB02G.JPG

newmtl Material0Gf
	Ns 9.999999
	Ni 1.500000
	d 1.000000
	Tr 0.000000
	Tf 1.000000 1.000000 1.000000 
	illum 2
	Ka 0.588235 0.588235 0.588235
	Kd 0.588235 0.588235 0.588235
	Ks 0.000000 0.000000 0.000000
	Ke 0.000000 0.000000 0.000000
	map_Ka ..\????max\maps\6R5FB01C.JPG
	map_Kd ..\????max\maps\6R5FB01C.JPG

newmtl Material04f
	Ns 9.999999
	Ni 1.500000
	d 1.000000
	Tr 0.000000
	Tf 1.000000 1.000000 1.000000 
	illum 2
	Ka 0.588235 0.588235 0.588235
	Kd 0.588235 0.588235 0.588235
	Ks 0.000000 0.000000 0.000000
	Ke 0.000000 0.000000 0.000000
	map_Ka ..\????max\maps\6R5FB02E.JPG
	map_Kd ..\????max\maps\6R5FB02E.JPG

newmtl Material0Hf
	Ns 9.999999
	Ni 1.500000
	d 1.000000
	Tr 0.000000
	Tf 1.000000 1.000000 1.000000 
	illum 2
	Ka 0.588235 0.588235 0.588235
	Kd 0.588235 0.588235 0.588235
	Ks 0.000000 0.000000 0.000000
	Ke 0.000000 0.000000 0.000000
	map_Ka ..\????max\maps\6R5FB01D.JPG
	map_Kd ..\????max\maps\6R5FB01D.JPG

newmtl Material0Mf
	Ns 9.999999
	Ni 1.500000
	d 1.000000
	Tr 0.000000
	Tf 1.000000 1.000000 1.000000 
	illum 2
	Ka 0.588235 0.588235 0.588235
	Kd 0.588235 0.588235 0.588235
	Ks 0.000000 0.000000 0.000000
	Ke 0.000000 0.000000 0.000000
	map_Ka ..\????max\maps\6R5FB01I.JPG
	map_Kd ..\????max\maps\6R5FB01I.JPG

newmtl Material0If
	Ns 9.999999
	Ni 1.500000
	d 1.000000
	Tr 0.000000
	Tf 1.000000 1.000000 1.000000 
	illum 2
	Ka 0.588235 0.588235 0.588235
	Kd 0.588235 0.588235 0.588235
	Ks 0.000000 0.000000 0.000000
	Ke 0.000000 0.000000 0.000000
	map_Ka ..\????max\maps\6R5FB01E.JPG
	map_Kd ..\????max\maps\6R5FB01E.JPG

newmtl Material03f
	Ns 9.999999
	Ni 1.500000
	d 1.000000
	Tr 0.000000
	Tf 1.000000 1.000000 1.000000 
	illum 2
	Ka 0.588235 0.588235 0.588235
	Kd 0.588235 0.588235 0.588235
	Ks 0.000000 0.000000 0.000000
	Ke 0.000000 0.000000 0.000000
	map_Ka ..\????max\maps\6R5FB02D.JPG
	map_Kd ..\????max\maps\6R5FB02D.JPG

newmtl Material0Yf
	Ns 9.999999
	Ni 1.500000
	d 1.000000
	Tr 0.000000
	Tf 1.000000 1.000000 1.000000 
	illum 2
	Ka 0.588235 0.588235 0.588235
	Kd 0.588235 0.588235 0.588235
	Ks 0.000000 0.000000 0.000000
	Ke 0.000000 0.000000 0.000000
	map_Ka ..\????max\maps\6R5FB01U.JPG
	map_Kd ..\????max\maps\6R5FB01U.JPG

newmtl Material1Nf
	Ns 9.999999
	Ni 1.500000
	d 1.000000
	Tr 0.000000
	Tf 1.000000 1.000000 1.000000 
	illum 2
	Ka 0.588235 0.588235 0.588235
	Kd 0.588235 0.588235 0.588235
	Ks 0.000000 0.000000 0.000000
	Ke 0.000000 0.000000 0.000000
	map_Ka ..\????max\maps\6R5FB02U.JPG
	map_Kd ..\????max\maps\6R5FB02U.JPG

newmtl Material0Kf
	Ns 9.999999
	Ni 1.500000
	d 1.000000
	Tr 0.000000
	Tf 1.000000 1.000000 1.000000 
	illum 2
	Ka 0.588235 0.588235 0.588235
	Kd 0.588235 0.588235 0.588235
	Ks 0.000000 0.000000 0.000000
	Ke 0.000000 0.000000 0.000000
	map_Ka ..\????max\maps\6R5FB01G.JPG
	map_Kd ..\????max\maps\6R5FB01G.JPG

newmtl Material0Lf
	Ns 9.999999
	Ni 1.500000
	d 1.000000
	Tr 0.000000
	Tf 1.000000 1.000000 1.000000 
	illum 2
	Ka 0.588235 0.588235 0.588235
	Kd 0.588235 0.588235 0.588235
	Ks 0.000000 0.000000 0.000000
	Ke 0.000000 0.000000 0.000000
	map_Ka ..\????max\maps\6R5FB01H.JPG
	map_Kd ..\????max\maps\6R5FB01H.JPG

newmtl Material08f
	Ns 9.999999
	Ni 1.500000
	d 1.000000
	Tr 0.000000
	Tf 1.000000 1.000000 1.000000 
	illum 2
	Ka 0.588235 0.588235 0.588235
	Kd 0.588235 0.588235 0.588235
	Ks 0.000000 0.000000 0.000000
	Ke 0.000000 0.000000 0.000000
	map_Ka ..\????max\maps\6R5FB02I.JPG
	map_Kd ..\????max\maps\6R5FB02I.JPG

newmtl Material0Nf
	Ns 9.999999
	Ni 1.500000
	d 1.000000
	Tr 0.000000
	Tf 1.000000 1.000000 1.000000 
	illum 2
	Ka 0.588235 0.588235 0.588235
	Kd 0.588235 0.588235 0.588235
	Ks 0.000000 0.000000 0.000000
	Ke 0.000000 0.000000 0.000000
	map_Ka ..\????max\maps\6R5FB01J.JPG
	map_Kd ..\????max\maps\6R5FB01J.JPG

newmtl Material05f
	Ns 9.999999
	Ni 1.500000
	d 1.000000
	Tr 0.000000
	Tf 1.000000 1.000000 1.000000 
	illum 2
	Ka 0.588235 0.588235 0.588235
	Kd 0.588235 0.588235 0.588235
	Ks 0.000000 0.000000 0.000000
	Ke 0.000000 0.000000 0.000000
	map_Ka ..\????max\maps\6R5FB02F.JPG
	map_Kd ..\????max\maps\6R5FB02F.JPG

newmtl Material0Af
	Ns 9.999999
	Ni 1.500000
	d 1.000000
	Tr 0.000000
	Tf 1.000000 1.000000 1.000000 
	illum 2
	Ka 0.588235 0.588235 0.588235
	Kd 0.588235 0.588235 0.588235
	Ks 0.000000 0.000000 0.000000
	Ke 0.000000 0.000000 0.000000
	map_Ka ..\????max\maps\6R5FB02K.JPG
	map_Kd ..\????max\maps\6R5FB02K.JPG

newmtl Material09f
	Ns 9.999999
	Ni 1.500000
	d 1.000000
	Tr 0.000000
	Tf 1.000000 1.000000 1.000000 
	illum 2
	Ka 0.588235 0.588235 0.588235
	Kd 0.588235 0.588235 0.588235
	Ks 0.000000 0.000000 0.000000
	Ke 0.000000 0.000000 0.000000
	map_Ka ..\????max\maps\6R5FB02J.JPG
	map_Kd ..\????max\maps\6R5FB02J.JPG

newmtl Material0Zf
	Ns 9.999999
	Ni 1.500000
	d 1.000000
	Tr 0.000000
	Tf 1.000000 1.000000 1.000000 
	illum 2
	Ka 0.588235 0.588235 0.588235
	Kd 0.588235 0.588235 0.588235
	Ks 0.000000 0.000000 0.000000
	Ke 0.000000 0.000000 0.000000
	map_Ka ..\????max\maps\6R5FB01V.JPG
	map_Kd ..\????max\maps\6R5FB01V.JPG

newmtl Material10f
	Ns 9.999999
	Ni 1.500000
	d 1.000000
	Tr 0.000000
	Tf 1.000000 1.000000 1.000000 
	illum 2
	Ka 0.588235 0.588235 0.588235
	Kd 0.588235 0.588235 0.588235
	Ks 0.000000 0.000000 0.000000
	Ke 0.000000 0.000000 0.000000
	map_Ka ..\????max\maps\6R5FB01W.JPG
	map_Kd ..\????max\maps\6R5FB01W.JPG

newmtl Material02f
	Ns 9.999999
	Ni 1.500000
	d 1.000000
	Tr 0.000000
	Tf 1.000000 1.000000 1.000000 
	illum 2
	Ka 0.588235 0.588235 0.588235
	Kd 0.588235 0.588235 0.588235
	Ks 0.000000 0.000000 0.000000
	Ke 0.000000 0.000000 0.000000
	map_Ka ..\????max\maps\6R5FB02C.JPG
	map_Kd ..\????max\maps\6R5FB02C.JPG

newmtl Material0Jf
	Ns 9.999999
	Ni 1.500000
	d 1.000000
	Tr 0.000000
	Tf 1.000000 1.000000 1.000000 
	illum 2
	Ka 0.588235 0.588235 0.588235
	Kd 0.588235 0.588235 0.588235
	Ks 0.000000 0.000000 0.000000
	Ke 0.000000 0.000000 0.000000
	map_Ka ..\????max\maps\6R5FB01F.JPG
	map_Kd ..\????max\maps\6R5FB01F.JPG

newmtl Material0Qf
	Ns 9.999999
	Ni 1.500000
	d 1.000000
	Tr 0.000000
	Tf 1.000000 1.000000 1.000000 
	illum 2
	Ka 0.588235 0.588235 0.588235
	Kd 0.588235 0.588235 0.588235
	Ks 0.000000 0.000000 0.000000
	Ke 0.000000 0.000000 0.000000
	map_Ka ..\????max\maps\6R5FB01M.JPG
	map_Kd ..\????max\maps\6R5FB01M.JPG

newmtl Material0Rf
	Ns 9.999999
	Ni 1.500000
	d 1.000000
	Tr 0.000000
	Tf 1.000000 1.000000 1.000000 
	illum 2
	Ka 0.588235 0.588235 0.588235
	Kd 0.588235 0.588235 0.588235
	Ks 0.000000 0.000000 0.000000
	Ke 0.000000 0.000000 0.000000
	map_Ka ..\????max\maps\6R5FB01N.JPG
	map_Kd ..\????max\maps\6R5FB01N.JPG

newmtl Material0Wf
	Ns 9.999999
	Ni 1.500000
	d 1.000000
	Tr 0.000000
	Tf 1.000000 1.000000 1.000000 
	illum 2
	Ka 0.588235 0.588235 0.588235
	Kd 0.588235 0.588235 0.588235
	Ks 0.000000 0.000000 0.000000
	Ke 0.000000 0.000000 0.000000
	map_Ka ..\????max\maps\6R5FB01S.JPG
	map_Kd ..\????max\maps\6R5FB01S.JPG

newmtl Material0Xf
	Ns 9.999999
	Ni 1.500000
	d 1.000000
	Tr 0.000000
	Tf 1.000000 1.000000 1.000000 
	illum 2
	Ka 0.588235 0.588235 0.588235
	Kd 0.588235 0.588235 0.588235
	Ks 0.000000 0.000000 0.000000
	Ke 0.000000 0.000000 0.000000
	map_Ka ..\????max\maps\6R5FB01T.TGA
	map_Kd ..\????max\maps\6R5FB01T.TGA
	map_d ..\????max\maps\6R5FB01T.TGA

newmtl Material11f
	Ns 9.999999
	Ni 1.500000
	d 1.000000
	Tr 0.000000
	Tf 1.000000 1.000000 1.000000 
	illum 2
	Ka 0.588235 0.588235 0.588235
	Kd 0.588235 0.588235 0.588235
	Ks 0.000000 0.000000 0.000000
	Ke 0.000000 0.000000 0.000000
	map_Ka ..\????max\maps\6R5FB01X.JPG
	map_Kd ..\????max\maps\6R5FB01X.JPG

newmtl Material12f
	Ns 9.999999
	Ni 1.500000
	d 1.000000
	Tr 0.000000
	Tf 1.000000 1.000000 1.000000 
	illum 2
	Ka 0.588235 0.588235 0.588235
	Kd 0.588235 0.588235 0.588235
	Ks 0.000000 0.000000 0.000000
	Ke 0.000000 0.000000 0.000000
	map_Ka ..\????max\maps\6R5FB01Y.TGA
	map_Kd ..\????max\maps\6R5FB01Y.TGA
	map_d ..\????max\maps\6R5FB01Y.TGA

newmtl Material1Af
	Ns 9.999999
	Ni 1.500000
	d 1.000000
	Tr 0.000000
	Tf 1.000000 1.000000 1.000000 
	illum 2
	Ka 0.588235 0.588235 0.588235
	Kd 0.588235 0.588235 0.588235
	Ks 0.000000 0.000000 0.000000
	Ke 0.000000 0.000000 0.000000
	map_Ka ..\????max\maps\6R5FB026.JPG
	map_Kd ..\????max\maps\6R5FB026.JPG

newmtl Material1Bf
	Ns 9.999999
	Ni 1.500000
	d 1.000000
	Tr 0.000000
	Tf 1.000000 1.000000 1.000000 
	illum 2
	Ka 0.588235 0.588235 0.588235
	Kd 0.588235 0.588235 0.588235
	Ks 0.000000 0.000000 0.000000
	Ke 0.000000 0.000000 0.000000
	map_Ka ..\????max\maps\6R5FB027.JPG
	map_Kd ..\????max\maps\6R5FB027.JPG

newmtl Material1Df
	Ns 9.999999
	Ni 1.500000
	d 1.000000
	Tr 0.000000
	Tf 1.000000 1.000000 1.000000 
	illum 2
	Ka 0.588235 0.588235 0.588235
	Kd 0.588235 0.588235 0.588235
	Ks 0.000000 0.000000 0.000000
	Ke 0.000000 0.000000 0.000000
	map_Ka ..\????max\maps\6R5FB029.TGA
	map_Kd ..\????max\maps\6R5FB029.TGA
	map_d ..\????max\maps\6R5FB029.TGA

newmtl Material1Ff
	Ns 9.999999
	Ni 1.500000
	d 1.000000
	Tr 0.000000
	Tf 1.000000 1.000000 1.000000 
	illum 2
	Ka 0.588235 0.588235 0.588235
	Kd 0.588235 0.588235 0.588235
	Ks 0.000000 0.000000 0.000000
	Ke 0.000000 0.000000 0.000000
	map_Ka ..\????max\maps\6R5FB02N.JPG
	map_Kd ..\????max\maps\6R5FB02N.JPG

newmtl Material1If
	Ns 9.999999
	Ni 1.500000
	d 1.000000
	Tr 0.000000
	Tf 1.000000 1.000000 1.000000 
	illum 2
	Ka 0.588235 0.588235 0.588235
	Kd 0.588235 0.588235 0.588235
	Ks 0.000000 0.000000 0.000000
	Ke 0.000000 0.000000 0.000000
	map_Ka ..\????max\maps\6R5FB02P.JPG
	map_Kd ..\????max\maps\6R5FB02P.JPG

newmtl Material1Hf
	Ns 9.999999
	Ni 1.500000
	d 1.000000
	Tr 0.000000
	Tf 1.000000 1.000000 1.000000 
	illum 2
	Ka 0.588235 0.588235 0.588235
	Kd 0.588235 0.588235 0.588235
	Ks 0.000000 0.000000 0.000000
	Ke 0.000000 0.000000 0.000000
	map_Ka ..\????max\maps\6R5FB02L.JPG
	map_Kd ..\????max\maps\6R5FB02L.JPG

newmtl Material1Ef
	Ns 9.999999
	Ni 1.500000
	d 1.000000
	Tr 0.000000
	Tf 1.000000 1.000000 1.000000 
	illum 2
	Ka 0.588235 0.588235 0.588235
	Kd 0.588235 0.588235 0.588235
	Ks 0.000000 0.000000 0.000000
	Ke 0.000000 0.000000 0.000000
	map_Ka ..\????max\maps\6R5FB02M.JPG
	map_Kd ..\????max\maps\6R5FB02M.JPG

newmtl Material1Of
	Ns 9.999999
	Ni 1.500000
	d 1.000000
	Tr 0.000000
	Tf 1.000000 1.000000 1.000000 
	illum 2
	Ka 0.588235 0.588235 0.588235
	Kd 0.588235 0.588235 0.588235
	Ks 0.000000 0.000000 0.000000
	Ke 0.000000 0.000000 0.000000
	map_Ka ..\????max\maps\6R5FB02V.JPG
	map_Kd ..\????max\maps\6R5FB02V.JPG

newmtl Material1Pf
	Ns 9.999999
	Ni 1.500000
	d 1.000000
	Tr 0.000000
	Tf 1.000000 1.000000 1.000000 
	illum 2
	Ka 0.588235 0.588235 0.588235
	Kd 0.588235 0.588235 0.588235
	Ks 0.000000 0.000000 0.000000
	Ke 0.000000 0.000000 0.000000
	map_Ka ..\????max\maps\6R5FB02W.JPG
	map_Kd ..\????max\maps\6R5FB02W.JPG

newmtl Material1Sf
	Ns 9.999999
	Ni 1.500000
	d 1.000000
	Tr 0.000000
	Tf 1.000000 1.000000 1.000000 
	illum 2
	Ka 0.588235 0.588235 0.588235
	Kd 0.588235 0.588235 0.588235
	Ks 0.000000 0.000000 0.000000
	Ke 0.000000 0.000000 0.000000
	map_Ka ..\????max\maps\6R5FB02Z.JPG
	map_Kd ..\????max\maps\6R5FB02Z.JPG

newmtl Material1Tf
	Ns 9.999999
	Ni 1.500000
	d 1.000000
	Tr 0.000000
	Tf 1.000000 1.000000 1.000000 
	illum 2
	Ka 0.588235 0.588235 0.588235
	Kd 0.588235 0.588235 0.588235
	Ks 0.000000 0.000000 0.000000
	Ke 0.000000 0.000000 0.000000
	map_Ka ..\????max\maps\6R5FB030.JPG
	map_Kd ..\????max\maps\6R5FB030.JPG

newmtl Material1Uf
	Ns 9.999999
	Ni 1.500000
	d 1.000000
	Tr 0.000000
	Tf 1.000000 1.000000 1.000000 
	illum 2
	Ka 0.588235 0.588235 0.588235
	Kd 0.588235 0.588235 0.588235
	Ks 0.000000 0.000000 0.000000
	Ke 0.000000 0.000000 0.000000
	map_Ka ..\????max\maps\6R5FB031.JPG
	map_Kd ..\????max\maps\6R5FB031.JPG

newmtl Material1Vf
	Ns 9.999999
	Ni 1.500000
	d 1.000000
	Tr 0.000000
	Tf 1.000000 1.000000 1.000000 
	illum 2
	Ka 0.588235 0.588235 0.588235
	Kd 0.588235 0.588235 0.588235
	Ks 0.000000 0.000000 0.000000
	Ke 0.000000 0.000000 0.000000
	map_Ka ..\????max\maps\6R5FB032.JPG
	map_Kd ..\????max\maps\6R5FB032.JPG

newmtl Material0Pf
	Ns 9.999999
	Ni 1.500000
	d 1.000000
	Tr 0.000000
	Tf 1.000000 1.000000 1.000000 
	illum 2
	Ka 0.588235 0.588235 0.588235
	Kd 0.588235 0.588235 0.588235
	Ks 0.000000 0.000000 0.000000
	Ke 0.000000 0.000000 0.000000
	map_Ka ..\????max\maps\6R5FB01L.JPG
	map_Kd ..\????max\maps\6R5FB01L.JPG

newmtl Material1Jf
	Ns 9.999999
	Ni 1.500000
	d 1.000000
	Tr 0.000000
	Tf 1.000000 1.000000 1.000000 
	illum 2
	Ka 0.588235 0.588235 0.588235
	Kd 0.588235 0.588235 0.588235
	Ks 0.000000 0.000000 0.000000
	Ke 0.000000 0.000000 0.000000
	map_Ka ..\????max\maps\6R5FB02Q.JPG
	map_Kd ..\????max\maps\6R5FB02Q.JPG

newmtl Material1Kf
	Ns 9.999999
	Ni 1.500000
	d 1.000000
	Tr 0.000000
	Tf 1.000000 1.000000 1.000000 
	illum 2
	Ka 0.588235 0.588235 0.588235
	Kd 0.588235 0.588235 0.588235
	Ks 0.000000 0.000000 0.000000
	Ke 0.000000 0.000000 0.000000
	map_Ka ..\????max\maps\6R5FB02R.JPG
	map_Kd ..\????max\maps\6R5FB02R.JPG

newmtl Material0Tf
	Ns 9.999999
	Ni 1.500000
	d 1.000000
	Tr 0.000000
	Tf 1.000000 1.000000 1.000000 
	illum 2
	Ka 0.588235 0.588235 0.588235
	Kd 0.588235 0.588235 0.588235
	Ks 0.000000 0.000000 0.000000
	Ke 0.000000 0.000000 0.000000
	map_Ka ..\????max\maps\6R5FB01P.JPG
	map_Kd ..\????max\maps\6R5FB01P.JPG

newmtl Material0Uf
	Ns 9.999999
	Ni 1.500000
	d 1.000000
	Tr 0.000000
	Tf 1.000000 1.000000 1.000000 
	illum 2
	Ka 0.588235 0.588235 0.588235
	Kd 0.588235 0.588235 0.588235
	Ks 0.000000 0.000000 0.000000
	Ke 0.000000 0.000000 0.000000
	map_Ka ..\????max\maps\6R5FB01Q.JPG
	map_Kd ..\????max\maps\6R5FB01Q.JPG

newmtl Material0Vf
	Ns 9.999999
	Ni 1.500000
	d 1.000000
	Tr 0.000000
	Tf 1.000000 1.000000 1.000000 
	illum 2
	Ka 0.588235 0.588235 0.588235
	Kd 0.588235 0.588235 0.588235
	Ks 0.000000 0.000000 0.000000
	Ke 0.000000 0.000000 0.000000
	map_Ka ..\????max\maps\6R5FB01R.JPG
	map_Kd ..\????max\maps\6R5FB01R.JPG

newmtl Material0Sf
	Ns 9.999999
	Ni 1.500000
	d 1.000000
	Tr 0.000000
	Tf 1.000000 1.000000 1.000000 
	illum 2
	Ka 0.588235 0.588235 0.588235
	Kd 0.588235 0.588235 0.588235
	Ks 0.000000 0.000000 0.000000
	Ke 0.000000 0.000000 0.000000
	map_Ka ..\????max\maps\6R5FB01O.JPG
	map_Kd ..\????max\maps\6R5FB01O.JPG

newmtl Material1Gf
	Ns 9.999999
	Ni 1.500000
	d 1.000000
	Tr 0.000000
	Tf 1.000000 1.000000 1.000000 
	illum 2
	Ka 0.588235 0.588235 0.588235
	Kd 0.588235 0.588235 0.588235
	Ks 0.000000 0.000000 0.000000
	Ke 0.000000 0.000000 0.000000
	map_Ka ..\????max\maps\6R5FB02O.JPG
	map_Kd ..\????max\maps\6R5FB02O.JPG

newmtl Material0Bf
	Ns 9.999999
	Ni 1.500000
	d 1.000000
	Tr 0.000000
	Tf 1.000000 1.000000 1.000000 
	illum 2
	Ka 0.588235 0.588235 0.588235
	Kd 0.588235 0.588235 0.588235
	Ks 0.000000 0.000000 0.000000
	Ke 0.000000 0.000000 0.000000
	map_Ka ..\????max\maps\6R5FB018.JPG
	map_Kd ..\????max\maps\6R5FB018.JPG

newmtl Material0Cf
	Ns 9.999999
	Ni 1.500000
	d 1.000000
	Tr 0.000000
	Tf 1.000000 1.000000 1.000000 
	illum 2
	Ka 0.588235 0.588235 0.588235
	Kd 0.588235 0.588235 0.588235
	Ks 0.000000 0.000000 0.000000
	Ke 0.000000 0.000000 0.000000
	map_Ka ..\????max\maps\6R5FB019.JPG
	map_Kd ..\????max\maps\6R5FB019.JPG

newmtl Material1Mf
	Ns 9.999999
	Ni 1.500000
	d 1.000000
	Tr 0.000000
	Tf 1.000000 1.000000 1.000000 
	illum 2
	Ka 0.588235 0.588235 0.588235
	Kd 0.588235 0.588235 0.588235
	Ks 0.000000 0.000000 0.000000
	Ke 0.000000 0.000000 0.000000
	map_Ka ..\????max\maps\6R5FB02T.JPG
	map_Kd ..\????max\maps\6R5FB02T.JPG

newmtl Material0Of
	Ns 9.999999
	Ni 1.500000
	d 1.000000
	Tr 0.000000
	Tf 1.000000 1.000000 1.000000 
	illum 2
	Ka 0.588235 0.588235 0.588235
	Kd 0.588235 0.588235 0.588235
	Ks 0.000000 0.000000 0.000000
	Ke 0.000000 0.000000 0.000000
	map_Ka ..\????max\maps\6R5FB01K.JPG
	map_Kd ..\????max\maps\6R5FB01K.JPG

newmtl Material1Lf
	Ns 9.999999
	Ni 1.500000
	d 1.000000
	Tr 0.000000
	Tf 1.000000 1.000000 1.000000 
	illum 2
	Ka 0.588235 0.588235 0.588235
	Kd 0.588235 0.588235 0.588235
	Ks 0.000000 0.000000 0.000000
	Ke 0.000000 0.000000 0.000000
	map_Ka ..\????max\maps\6R5FB02S.TGA
	map_Kd ..\????max\maps\6R5FB02S.TGA
	map_d ..\????max\maps\6R5FB02S.TGA

newmtl 11___Default
	Ns 9.999999
	Ni 1.500000
	d 1.000000
	Tr 0.000000
	Tf 1.000000 1.000000 1.000000 
	illum 2
	Ka 0.588235 0.588235 0.588235
	Kd 0.588235 0.588235 0.588235
	Ks 0.000000 0.000000 0.000000
	Ke 0.000000 0.000000 0.000000
	map_Ka ..\????max\maps\window.jpg
	map_Kd ..\????max\maps\window.jpg

newmtl Material0Df
	Ns 9.999999
	Ni 1.500000
	d 1.000000
	Tr 0.000000
	Tf 1.000000 1.000000 1.000000 
	illum 2
	Ka 0.588235 0.588235 0.588235
	Kd 0.588235 0.588235 0.588235
	Ks 0.000000 0.000000 0.000000
	Ke 0.000000 0.000000 0.000000
	map_Ka ..\????max\maps\6R5FB01A.TGA
	map_Kd ..\????max\maps\6R5FB01A.TGA
	map_d ..\????max\maps\6R5FB01A.TGA

newmtl Material0Ff
	Ns 9.999999
	Ni 1.500000
	d 1.000000
	Tr 0.000000
	Tf 1.000000 1.000000 1.000000 
	illum 2
	Ka 0.588235 0.588235 0.588235
	Kd 0.588235 0.588235 0.588235
	Ks 0.000000 0.000000 0.000000
	Ke 0.000000 0.000000 0.000000
	map_Ka ..\????max\maps\6R5FB01B.JPG
	map_Kd ..\????max\maps\6R5FB01B.JPG

newmtl Material14f
	Ns 9.999999
	Ni 1.500000
	d 1.000000
	Tr 0.000000
	Tf 1.000000 1.000000 1.000000 
	illum 2
	Ka 0.588235 0.588235 0.588235
	Kd 0.588235 0.588235 0.588235
	Ks 0.000000 0.000000 0.000000
	Ke 0.000000 0.000000 0.000000
	map_Ka ..\????max\maps\6R5FB020.JPG
	map_Kd ..\????max\maps\6R5FB020.JPG

newmtl Material1Rf
	Ns 9.999999
	Ni 1.500000
	d 1.000000
	Tr 0.000000
	Tf 1.000000 1.000000 1.000000 
	illum 2
	Ka 0.588235 0.588235 0.588235
	Kd 0.588235 0.588235 0.588235
	Ks 0.000000 0.000000 0.000000
	Ke 0.000000 0.000000 0.000000
	map_Ka ..\????max\maps\6R5FB02Y.JPG
	map_Kd ..\????max\maps\6R5FB02Y.JPG

newmtl Material1Qf
	Ns 9.999999
	Ni 1.500000
	d 1.000000
	Tr 0.000000
	Tf 1.000000 1.000000 1.000000 
	illum 2
	Ka 0.588235 0.588235 0.588235
	Kd 0.588235 0.588235 0.588235
	Ks 0.000000 0.000000 0.000000
	Ke 0.000000 0.000000 0.000000
	map_Ka ..\????max\maps\6R5FB02X.TGA
	map_Kd ..\????max\maps\6R5FB02X.TGA
	map_d ..\????max\maps\6R5FB02X.TGA
